{
  "variables": {
    "username": "root@pam",
    "password": ""
  },
  "builders": [
    {
      "type": "proxmox",
      "proxmox_url": "https://192.168.1.5:8006/api2/json",
      "insecure_skip_tls_verify": true,
      "username": "{{user `username`}}",
      "password": "{{user `password`}}",

      "cpu_type": "host",
      "cores": "2",

      "node": "orchid",
      "network_adapters": [
        {
          "model": "virtio",
          "bridge": "vmbr0"
        }
      ],
      "memory": 4096,
      "disks": [
        {
          "type": "scsi",
          "disk_size": "20G",
          "storage_pool": "VM1",
          "storage_pool_type": "lvm"
        }
      ],
      "scsi_controller": "virtio-scsi-pci",

      "iso_file": "USB-ISO:iso/debian-10.3.0-amd64-netinst.iso",
      "http_directory": "http",
      "boot_wait": "10s",
      "boot_command": [
        "<esc><wait>",
        "install <wait>",
        " preseed/url=http://192.168.1.188:{{ .HTTPPort }}/preseed.cfg <wait>",
        "debian-installer=en_US.UTF-8 <wait>",
        "auto <wait>",
        "locale=en_US.UTF-8 <wait>",
        "kbd-chooser/method=us <wait>",
        "keyboard-configuration/xkb-keymap=us <wait>",
        "netcfg/get_hostname=localhost <wait>",
        "netcfg/get_domain=fios-router.home <wait>",
        "fb=false <wait>",
        "debconf/frontend=noninteractive <wait>",
        "console-setup/ask_detect=false <wait>",
        "console-keymaps-at/keymap=us <wait>",
        "grub-installer/bootdev=/dev/sda <wait>",
        "<enter><wait>"
      ],

      "ssh_username": "laundry",
      "ssh_password": "<PASSWORD>",
      "ssh_timeout": "30m",

      "unmount_iso": true,
      "template_name": "Debian10-Medium"
    }
  ]


}
